{
  "content": [
    {
      "createdDate": "2024-07-11T14:08:59.059651",
      "modifiedDate": "2024-07-11T14:08:59.059651",
      "id": 1,
      "name": "Nến thơm Tealight hoa khô DATELIGHTS CANDLE - DATENEYLAND STYLE HÀN QUỐC KÈM HỘP",
      "thumbnail": "https://down-vn.img.susercontent.com/file/vn-11134207-7r98o-lw2e7o8awsez71",
      "price": 108000.0,
      "views": 0,
      "soldQuantity": 0,
      "origin": 120000.0,
      "status": "CON_HANG",
      "unitInStock": 100
    },
    {
      "createdDate": "2024-07-11T14:08:59.130574",
      "modifiedDate": "2024-07-11T14:08:59.130574",
      "id": 2,
      "name": "Set Quà Tặng Nến Thơm Quà Sinh Nhật Quà Tặng Doanh Nghiệp Quà Tặng Người Yêu",
      "thumbnail": "https://down-vn.img.susercontent.com/file/vn-11134207-7r98o-lvakays3lv1g1f",
      "price": 629000.0,
      "views": 0,
      "soldQuantity": 0,
      "origin": 720000.0,
      "status": "CON_HANG",
      "unitInStock": 100
    },
    {
      "createdDate": "2024-07-11T14:08:59.152171",
      "modifiedDate": "2024-07-11T14:08:59.152171",
      "id": 3,
      "name": "Hộp Quà Nến Thơm , Set Quà Nến Thơm Handmade Tặng Người Yêu Dịp Noel Gấu Cute",
      "thumbnail": "https://down-vn.img.susercontent.com/file/sg-11134201-22110-mxekq7q8jyjv92",
      "price": 135000.0,
      "views": 0,
      "soldQuantity": 0,
      "origin": 155000.0,
      "status": "CON_HANG",
      "unitInStock": 100
    },
    {
      "createdDate": "2024-07-11T14:08:59.179672",
      "modifiedDate": "2024-07-11T14:08:59.179672",
      "id": 4,
      "name": "Set quà tặng cao cấp Bó hoa baby mix hoa hồng sáp sang trọng (kèm túi + đèn led + thiệp)",
      "thumbnail": "https://down-vn.img.susercontent.com/file/vn-11134207-7qukw-ljc8q09in2s213",
      "price": 127000.0,
      "views": 0,
      "soldQuantity": 0,
      "origin": 140000.0,
      "status": "CON_HANG",
      "unitInStock": 100
    },
    {
      "createdDate": "2024-07-11T14:08:59.207642",
      "modifiedDate": "2024-07-11T14:08:59.207642",
      "id": 5,
      "name": "Set vật liệu làm bó hoa 520 sao giấy nhiều màu sắc làm quà tặng đẹp S0084",
      "thumbnail": "https://down-vn.img.susercontent.com/file/vn-11134207-7r98o-lri3zb6fh9dw4a",
      "price": 150000.0,
      "views": 0,
      "soldQuantity": 0,
      "origin": 170000.0,
      "status": "CON_HANG",
      "unitInStock": 100
    },
    {
      "createdDate": "2024-07-11T14:08:59.229823",
      "modifiedDate": "2024-07-11T14:08:59.229823",
      "id": 6,
      "name": "Set Quà cao cấp Tặng Mẹ Tặng Bạn Gái Quà Tặng Dịp Lễ Tết Sinh Nhật Valentine 8/3 20/10 20/11 LT01",
      "thumbnail": "https://down-vn.img.susercontent.com/file/sg-11134201-7rbni-lnnsfskjnirs67",
      "price": 120000.0,
      "views": 0,
      "soldQuantity": 0,
      "origin": 123000.0,
      "status": "CON_HANG",
      "unitInStock": 100
    },
    {
      "createdDate": "2024-07-11T14:08:59.251338",
      "modifiedDate": "2024-07-11T14:08:59.251338",
      "id": 7,
      "name": "SET QUÀ TỰ CHỌN SIÊU XINH TIỆM CASTI - NẾN THƠM - SET 02",
      "thumbnail": "https://down-vn.img.susercontent.com/file/d31d3b201354bb4978959413891bc04c",
      "price": 310000.0,
      "views": 0,
      "soldQuantity": 0,
      "origin": 350000.0,
      "status": "CON_HANG",
      "unitInStock": 100
    },
    {
      "createdDate": "2024-07-11T14:08:59.270659",
      "modifiedDate": "2024-07-11T14:08:59.270659",
      "id": 8,
      "name": "(Tặng thiệp) Set quà tặng nến thơm và cốc xinh xắn, quà lưu niệm ý nghĩa, độc đáo QT28",
      "thumbnail": "https://down-vn.img.susercontent.com/file/vn-11134207-7qukw-lgd7at3k4hrrc1",
      "price": 189000.0,
      "views": 0,
      "soldQuantity": 0,
      "origin": 200000.0,
      "status": "CON_HANG",
      "unitInStock": 100
    },
    {
      "createdDate": "2024-07-11T14:08:59.291451",
      "modifiedDate": "2024-07-11T14:08:59.291451",
      "id": 9,
      "name": "Túi tự đan handmade, quà tự làm tặng bạn gái ý nghĩa ,đầy đủ nguyên liệu đan túi xách, kèm video hướng dẫn chi tiết A01",
      "thumbnail": "https://down-vn.img.susercontent.com/file/vn-11134207-7r98o-ltvx7hl7ljii04",
      "price": 150000.0,
      "views": 0,
      "soldQuantity": 0,
      "origin": 160000.0,
      "status": "CON_HANG",
      "unitInStock": 100
    },
    {
      "createdDate": "2024-07-11T14:08:59.31054",
      "modifiedDate": "2024-07-11T14:08:59.31054",
      "id": 10,
      "name": "Túi kẹp nách handmade len, túi len thiết kế, túi custom, túi coquette, Quà tặng bạn gái, quà tặng sinh Nhật, BD gift",
      "thumbnail": "https://down-vn.img.susercontent.com/file/vn-11134207-7r98o-lwmcgpx1asbd50",
      "price": 229999.0,
      "views": 0,
      "soldQuantity": 0,
      "origin": 249000.0,
      "status": "CON_HANG",
      "unitInStock": 100
    }
  ],
  "page": {
    "size": 10,
    "number": 0,
    "totalElements": 29,
    "totalPages": 3
  }
}