{
  "content": [
    {
      "createdDate": "2024-07-10T16:25:01.543504",
      "modifiedDate": "2024-07-10T16:25:01.543504",
      "id": 36,
      "name": "Thiệp Quà Tặng Chúc Mừng Họa Tiết Phong Cách Vintage Dễ Thương Cute - Hally shop",
      "thumbnail": "https://down-vn.img.susercontent.com/file/sg-11134201-7qvdd-ljgqor3j4u16f1",
      "price": 7000.0,
      "origin": 8000.0,
      "status": "CON_HANG",
      "unitInStock": 100
    },
    {
      "createdDate": "2024-07-10T16:25:01.608497",
      "modifiedDate": "2024-07-10T16:25:01.608497",
      "id": 38,
      "name": "Thiệp chúc mừng sinh nhật, ngày lễ ánh nhũ Mua Tất (muatat.shop)",
      "thumbnail": "https://down-vn.img.susercontent.com/file/vn-11134207-7r98o-ls3xwczx5q556e",
      "price": 12000.0,
      "origin": 14000.0,
      "status": "CON_HANG",
      "unitInStock": 100
    },
    {
      "createdDate": "2024-07-10T16:25:00.854247",
      "modifiedDate": "2024-07-10T16:25:00.854247",
      "id": 14,
      "name": "Album ảnh 6x9, 9x12, 10x15 kiểu bìa da Vintage dán ảnh trực tiếp",
      "thumbnail": "https://down-vn.img.susercontent.com/file/vn-11134207-7qukw-lgdmqr5pw5m2f3",
      "price": 15000.0,
      "origin": 170000.0,
      "status": "CON_HANG",
      "unitInStock": 100
    },
    {
      "createdDate": "2024-07-10T16:25:01.822197",
      "modifiedDate": "2024-07-10T16:25:01.822197",
      "id": 44,
      "name": "Thiệp hoa khô handmade Giáng sinh Merry Chrismas, Noen, quà tặng giáng sinh, Noel -M45",
      "thumbnail": "https://down-vn.img.susercontent.com/file/vn-11134207-7r98o-loo8b8k2gemj2f",
      "price": 25000.0,
      "origin": 28000.0,
      "status": "CON_HANG",
      "unitInStock": 100
    },
    {
      "createdDate": "2024-07-10T16:25:01.324438",
      "modifiedDate": "2024-07-10T16:25:01.324438",
      "id": 30,
      "name": "Khung Ảnh Treo Tường, Mặt Kính - Khung Hình Treo Tường Giá Rẻ, Tặng Đinh 3 Chân Không Cần Khoan Tường",
      "thumbnail": "https://down-vn.img.susercontent.com/file/99ccdb438389cc67868ec630acb38a67",
      "price": 31000.0,
      "origin": 51000.0,
      "status": "CON_HANG",
      "unitInStock": 100
    },
    {
      "createdDate": "2024-07-10T16:25:01.853925",
      "modifiedDate": "2024-07-10T16:25:01.853925",
      "id": 45,
      "name": "Thiệp kraft handmade sinh nhật/ kỷ niệm bao thư + ruột thiệp tặng kèm hoa khô",
      "thumbnail": "https://down-vn.img.susercontent.com/file/vn-11134211-7r98o-lt0judqhzlj85d",
      "price": 35000.0,
      "origin": 39000.0,
      "status": "CON_HANG",
      "unitInStock": 100
    },
    {
      "createdDate": "2024-07-10T16:25:01.743359",
      "modifiedDate": "2024-07-10T16:25:01.743359",
      "id": 42,
      "name": "Thiệp sinh nhật, kỷ niệm handmade bó hoa khô ngày tháng tặng kèm bao thư kraft và trái tim",
      "thumbnail": "https://down-vn.img.susercontent.com/file/vn-11134211-7r98o-lt0judqi2emx7e",
      "price": 35000.0,
      "origin": 37000.0,
      "status": "CON_HANG",
      "unitInStock": 100
    }
  ],
  "page": {
    "size": 10,
    "number": 1,
    "totalElements": 60,
    "totalPages": 6
  }
}