{
  "content": [
    {
      "createdDate": "2024-07-11T14:08:59.586013",
      "modifiedDate": "2024-07-11T14:08:59.586013",
      "id": 21,
      "name": "Sổ dán ảnh Scrapbook - Album ảnh trang trí dùng làm quà tặng",
      "thumbnail": "https://down-vn.img.susercontent.com/file/vn-11134207-7r98o-loexc1ug55o327",
      "price": 392000.0,
      "origin": 412000.0,
      "status": "CON_HANG",
      "unitInStock": 100
    },
    {
      "createdDate": "2024-07-11T14:08:59.614715",
      "modifiedDate": "2024-07-11T14:08:59.614715",
      "id": 22,
      "name": "Thẻ Thông Điệp Phát Nhạc 3d Sáng Tạo Cho Sinh Nhật",
      "thumbnail": "https://down-vn.img.susercontent.com/file/dc20e81f4357f5c712a992fffde9ef21",
      "price": 40000.0,
      "origin": 60000.0,
      "status": "CON_HANG",
      "unitInStock": 100
    },
    {
      "createdDate": "2024-07-11T14:08:59.643624",
      "modifiedDate": "2024-07-11T14:08:59.643624",
      "id": 23,
      "name": "Album Ảnh 3inch 40 Ngăn In Hình Nhóm Nhạc Kpop Dễ Thương",
      "thumbnail": "https://down-vn.img.susercontent.com/file/sg-11134201-7rbl7-lnjjfqcldo35c0",
      "price": 66000.0,
      "origin": 86000.0,
      "status": "CON_HANG",
      "unitInStock": 100
    },
    {
      "createdDate": "2024-07-11T14:08:59.671019",
      "modifiedDate": "2024-07-11T14:08:59.671019",
      "id": 24,
      "name": "Hộp quà tặng love box loại 5 ảnh in hình miễn phí tặng sinh nhật anniversay valentine vintage ý nghĩa Góc Nhà gocnha",
      "thumbnail": "https://down-vn.img.susercontent.com/file/723e251cd3271577cc914de02255c041",
      "price": 110000.0,
      "origin": 130000.0,
      "status": "CON_HANG",
      "unitInStock": 100
    },
    {
      "createdDate": "2024-07-11T14:08:59.6953",
      "modifiedDate": "2024-07-11T14:08:59.6953",
      "id": 25,
      "name": "[Sâu 2 cm] Set làm khung ảnh nổi/Khung ảnh 3D(kèm clip hướng dẫn)",
      "thumbnail": "https://down-vn.img.susercontent.com/file/vn-11134207-7r98o-lqhuy912tkc7db",
      "price": 200000.0,
      "origin": 220000.0,
      "status": "CON_HANG",
      "unitInStock": 100
    },
    {
      "createdDate": "2024-07-11T14:08:59.717818",
      "modifiedDate": "2024-07-11T14:08:59.717818",
      "id": 26,
      "name": "(20x30cm) Khung ảnh 3D Scrapframe lưu niệm Handmade Decor phòng - Khung tranh Quà tặng Đa dạng mẫu",
      "thumbnail": "https://down-vn.img.susercontent.com/file/vn-11134207-7r98o-llti2vt3z9pbae",
      "price": 550000.0,
      "origin": 570000.0,
      "status": "CON_HANG",
      "unitInStock": 100
    },
    {
      "createdDate": "2024-07-11T14:08:59.747212",
      "modifiedDate": "2024-07-11T14:08:59.747212",
      "id": 27,
      "name": "[Khung sần sâu 1 cm ]Khung ảnh kỉ niệm/khung ảnh tình yêu/khung ảnh sinh nhật",
      "thumbnail": "https://down-vn.img.susercontent.com/file/vn-11134207-7qukw-lh4x9mccmo8i55",
      "price": 165000.0,
      "origin": 185000.0,
      "status": "CON_HANG",
      "unitInStock": 100
    },
    {
      "createdDate": "2024-07-11T14:08:59.775493",
      "modifiedDate": "2024-07-11T14:08:59.775493",
      "id": 28,
      "name": "Khung Ảnh Chữ Viết Tay Vintage Quà Tặng Đặc Biệt - Handmade By NOMAD GARDEN",
      "thumbnail": "https://down-vn.img.susercontent.com/file/sg-11134201-22100-tqlamiwlbaiv3b",
      "price": 395000.0,
      "origin": 415000.0,
      "status": "CON_HANG",
      "unitInStock": 100
    },
    {
      "createdDate": "2024-07-11T14:08:59.803886",
      "modifiedDate": "2024-07-11T14:08:59.803886",
      "id": 29,
      "name": "Combo khung dây + ảnh treo tường in theo yêu cầu - khung ảnh treo tường gỗ tự nhiên",
      "thumbnail": "https://down-vn.img.susercontent.com/file/vn-11134207-7r98o-lu594ke0ccnzad",
      "price": 167000.0,
      "origin": 187000.0,
      "status": "CON_HANG",
      "unitInStock": 100
    },
    {
      "createdDate": "2024-07-11T14:08:59.834616",
      "modifiedDate": "2024-07-11T14:08:59.834616",
      "id": 30,
      "name": "Khung Ảnh Treo Tường, Mặt Kính - Khung Hình Treo Tường Giá Rẻ, Tặng Đinh 3 Chân Không Cần Khoan Tường",
      "thumbnail": "https://down-vn.img.susercontent.com/file/99ccdb438389cc67868ec630acb38a67",
      "price": 31000.0,
      "origin": 51000.0,
      "status": "CON_HANG",
      "unitInStock": 100
    }
  ],
  "page": {
    "size": 10,
    "number": 2,
    "totalElements": 60,
    "totalPages": 6
  }
}