{
  "content": [
    {
      "createdDate": "2024-07-11T14:08:59.6953",
      "modifiedDate": "2024-07-11T14:08:59.6953",
      "id": 25,
      "name": "[Sâu 2 cm] Set làm khung ảnh nổi/Khung ảnh 3D(kèm clip hướng dẫn)",
      "thumbnail": "https://down-vn.img.susercontent.com/file/vn-11134207-7r98o-lqhuy912tkc7db",
      "price": 200000.0,
      "origin": 220000.0,
      "status": "CON_HANG",
      "unitInStock": 100
    },
    {
      "createdDate": "2024-07-11T14:08:59.717818",
      "modifiedDate": "2024-07-11T14:08:59.717818",
      "id": 26,
      "name": "(20x30cm) Khung ảnh 3D Scrapframe lưu niệm Handmade Decor phòng - Khung tranh Quà tặng Đa dạng mẫu",
      "thumbnail": "https://down-vn.img.susercontent.com/file/vn-11134207-7r98o-llti2vt3z9pbae",
      "price": 550000.0,
      "origin": 570000.0,
      "status": "CON_HANG",
      "unitInStock": 100
    },
    {
      "createdDate": "2024-07-11T14:08:59.747212",
      "modifiedDate": "2024-07-11T14:08:59.747212",
      "id": 27,
      "name": "[Khung sần sâu 1 cm ]Khung ảnh kỉ niệm/khung ảnh tình yêu/khung ảnh sinh nhật",
      "thumbnail": "https://down-vn.img.susercontent.com/file/vn-11134207-7qukw-lh4x9mccmo8i55",
      "price": 165000.0,
      "origin": 185000.0,
      "status": "CON_HANG",
      "unitInStock": 100
    },
    {
      "createdDate": "2024-07-11T14:08:59.775493",
      "modifiedDate": "2024-07-11T14:08:59.775493",
      "id": 28,
      "name": "Khung Ảnh Chữ Viết Tay Vintage Quà Tặng Đặc Biệt - Handmade By NOMAD GARDEN",
      "thumbnail": "https://down-vn.img.susercontent.com/file/sg-11134201-22100-tqlamiwlbaiv3b",
      "price": 395000.0,
      "origin": 415000.0,
      "status": "CON_HANG",
      "unitInStock": 100
    },
    {
      "createdDate": "2024-07-11T14:08:59.803886",
      "modifiedDate": "2024-07-11T14:08:59.803886",
      "id": 29,
      "name": "Combo khung dây + ảnh treo tường in theo yêu cầu - khung ảnh treo tường gỗ tự nhiên",
      "thumbnail": "https://down-vn.img.susercontent.com/file/vn-11134207-7r98o-lu594ke0ccnzad",
      "price": 167000.0,
      "origin": 187000.0,
      "status": "CON_HANG",
      "unitInStock": 100
    },
    {
      "createdDate": "2024-07-11T14:08:59.861892",
      "modifiedDate": "2024-07-11T14:08:59.861892",
      "id": 31,
      "name": "Khung ảnh gỗ để bàn decor 2 mặt nhiều kích thước, làm gỗ thông tự nhiên trang trí nhà cửa",
      "thumbnail": "https://down-vn.img.susercontent.com/file/sg-11134201-23020-1zrnqxckl7mvd7",
      "price": 165000.0,
      "origin": 180000.0,
      "status": "CON_HANG",
      "unitInStock": 90
    },
    {
      "createdDate": "2024-07-11T14:08:59.925424",
      "modifiedDate": "2024-07-11T14:08:59.925424",
      "id": 33,
      "name": "Khung Ảnh Để Bàn Chữ L SÁNG TẠO 2 Mặt Trong Suốt (10x15, 14x21 cm) KA08",
      "thumbnail": "https://down-vn.img.susercontent.com/file/vn-11134207-7qukw-lg66863vjz07e4",
      "price": 220000.0,
      "origin": 240000.0,
      "status": "CON_HANG",
      "unitInStock": 95
    },
    {
      "createdDate": "2024-07-11T14:08:59.952973",
      "modifiedDate": "2024-07-11T14:08:59.952973",
      "id": 34,
      "name": "[GIÁ XƯỞNG] KHUNG TRANH ẢNH 3D, KHUNG TRANH TRANG TRÍ HOA KHÔ NHIỀU KÍCH THƯỚC",
      "thumbnail": "https://down-vn.img.susercontent.com/file/vn-11134207-7r98o-lm5iltpb8g6707",
      "price": 115000.0,
      "origin": 130000.0,
      "status": "CON_HANG",
      "unitInStock": 88
    },
    {
      "createdDate": "2024-07-11T14:09:00.37687",
      "modifiedDate": "2024-07-11T14:09:00.37687",
      "id": 46,
      "name": "Đồ Handmade Tự Làm, Đèn Ngủ Hoa Tulip, Set Tự Làm Đèn Hoa Tulip Tráng Gương, Làm Quà Tặng",
      "thumbnail": "https://down-vn.img.susercontent.com/file/vn-11134207-7r98o-lwy67ac6tqs9db",
      "price": 180000.0,
      "origin": 190000.0,
      "status": "CON_HANG",
      "unitInStock": 100
    },
    {
      "createdDate": "2024-07-11T14:09:00.413225",
      "modifiedDate": "2024-07-11T14:09:00.413225",
      "id": 47,
      "name": "[TỰ LÀM - LÀM SẴN] DIY Đèn Tulip hình ĐÁM MÂY GƯƠNG Handmade Trang Trí, Quà Tặng Sinh Nhật Đèn ngủ, làm gương - Erashop",
      "thumbnail": "https://down-vn.img.susercontent.com/file/vn-11134207-7r98o-luyyoomeaotha2",
      "price": 209000.0,
      "origin": 250000.0,
      "status": "CON_HANG",
      "unitInStock": 100
    }
  ],
  "page": {
    "size": 10,
    "number": 2,
    "totalElements": 38,
    "totalPages": 4
  }
}