{
  "content": [
    {
      "createdDate": "2024-07-10T16:25:01.324438",
      "modifiedDate": "2024-07-10T16:25:01.324438",
      "id": 30,
      "name": "Khung Ảnh Treo Tường, Mặt Kính - Khung Hình Treo Tường Giá Rẻ, Tặng Đinh 3 Chân Không Cần Khoan Tường",
      "thumbnail": "https://down-vn.img.susercontent.com/file/99ccdb438389cc67868ec630acb38a67",
      "price": 31000.0,
      "origin": 51000.0,
      "status": "CON_HANG",
      "unitInStock": 100
    },
    {
      "createdDate": "2024-07-10T16:25:01.853925",
      "modifiedDate": "2024-07-10T16:25:01.853925",
      "id": 45,
      "name": "Thiệp kraft handmade sinh nhật/ kỷ niệm bao thư + ruột thiệp tặng kèm hoa khô",
      "thumbnail": "https://down-vn.img.susercontent.com/file/vn-11134211-7r98o-lt0judqhzlj85d",
      "price": 35000.0,
      "origin": 39000.0,
      "status": "CON_HANG",
      "unitInStock": 100
    },
    {
      "createdDate": "2024-07-10T16:25:01.743359",
      "modifiedDate": "2024-07-10T16:25:01.743359",
      "id": 42,
      "name": "Thiệp sinh nhật, kỷ niệm handmade bó hoa khô ngày tháng tặng kèm bao thư kraft và trái tim",
      "thumbnail": "https://down-vn.img.susercontent.com/file/vn-11134211-7r98o-lt0judqi2emx7e",
      "price": 35000.0,
      "origin": 37000.0,
      "status": "CON_HANG",
      "unitInStock": 100
    },
    {
      "createdDate": "2024-07-10T16:25:01.083825",
      "modifiedDate": "2024-07-10T16:25:01.083825",
      "id": 22,
      "name": "Thẻ Thông Điệp Phát Nhạc 3d Sáng Tạo Cho Sinh Nhật",
      "thumbnail": "https://down-vn.img.susercontent.com/file/dc20e81f4357f5c712a992fffde9ef21",
      "price": 40000.0,
      "origin": 60000.0,
      "status": "CON_HANG",
      "unitInStock": 100
    },
    {
      "createdDate": "2024-07-10T16:25:02.029926",
      "modifiedDate": "2024-07-10T16:25:02.029926",
      "id": 50,
      "name": "[CÓ SẴN/HCM] DIY - Set Nguyên liệu móc BẠCH TUỘC làm móc khóa - Nhiều màu, kèm hướng dẫn chi tiết",
      "thumbnail": "https://down-vn.img.susercontent.com/file/vn-11134207-7qukw-lihb6q75zhea54",
      "price": 40000.0,
      "origin": 47000.0,
      "status": "CON_HANG",
      "unitInStock": 100
    },
    {
      "createdDate": "2024-07-10T16:25:01.38517",
      "modifiedDate": "2024-07-10T16:25:01.38517",
      "id": 32,
      "name": "Khung Ảnh Để Bàn gỗ 3D trong suốt 12*17*4,5cm 1 mặt KA9 Khung Hình mô hình hoa khô đất sét tiêu bản tranh giấy kèm đế",
      "thumbnail": "https://down-vn.img.susercontent.com/file/sg-11134201-22100-cambl1qwwuivca",
      "price": 60000.0,
      "origin": 65000.0,
      "status": "CON_HANG",
      "unitInStock": 85
    },
    {
      "createdDate": "2024-07-10T16:25:01.116118",
      "modifiedDate": "2024-07-10T16:25:01.116118",
      "id": 23,
      "name": "Album Ảnh 3inch 40 Ngăn In Hình Nhóm Nhạc Kpop Dễ Thương",
      "thumbnail": "https://down-vn.img.susercontent.com/file/sg-11134201-7rbl7-lnjjfqcldo35c0",
      "price": 66000.0,
      "origin": 86000.0,
      "status": "CON_HANG",
      "unitInStock": 100
    },
    {
      "createdDate": "2024-07-10T16:25:00.880119",
      "modifiedDate": "2024-07-10T16:25:00.880119",
      "id": 15,
      "name": "Shanhai Accordion Album Ảnh Quà Tặng, Gấp Photocard Sách Ảnh Bất Ngờ, Giấy Kraft Sáng Tạo Thủ Công 10 Trang DIY Quà Tặng",
      "thumbnail": "https://down-vn.img.susercontent.com/file/sg-11134201-7rd61-lu665ws3p6hf47",
      "price": 67000.0,
      "origin": 87000.0,
      "status": "CON_HANG",
      "unitInStock": 100
    },
    {
      "createdDate": "2024-07-10T16:25:02.091406",
      "modifiedDate": "2024-07-10T16:25:02.091406",
      "id": 52,
      "name": "[Full phụ kiện - Có sẵn] Cây Thông Noel Kẽm Nhung / Set Nguyên Liệu Tự làm Cây Thông Noel Handmade Mini 22cm Era Shop",
      "thumbnail": "https://down-vn.img.susercontent.com/file/vn-11134207-7r98o-lnuwm6fn9x16ca",
      "price": 74000.0,
      "origin": 74000.0,
      "status": "CON_HANG",
      "unitInStock": 100
    },
    {
      "createdDate": "2024-07-10T16:25:02.13493",
      "modifiedDate": "2024-07-10T16:25:02.13493",
      "id": 54,
      "name": "Bộ đồ thêu tay mặt dây chuyền tự làm hình tròn/ Vuông thủ công/Quà tặng đại diện tình yêu",
      "thumbnail": "https://down-vn.img.susercontent.com/file/14c170964c541525c1d66042573bc5df",
      "price": 78000.0,
      "origin": 78000.0,
      "status": "CON_HANG",
      "unitInStock": 100
    }
  ],
  "page": {
    "size": 10,
    "number": 1,
    "totalElements": 60,
    "totalPages": 6
  }
}