{
  "content": [
    {
      "createdDate": "2024-07-10T16:25:00.751732",
      "modifiedDate": "2024-07-10T16:25:00.751732",
      "id": 11,
      "name": "Cute Gift Box - bộ quà tặng 6 món với bình giữ nhiệt, khăn quấn tóc nhanh khô, túi nụ thơm, nến thơm handmade",
      "thumbnail": "https://down-vn.img.susercontent.com/file/3b0573d6c6514b45e09bf55b5b86106c",
      "price": 345000.0,
      "origin": 365000.0,
      "status": "CON_HANG",
      "unitInStock": 100
    },
    {
      "createdDate": "2024-07-10T16:25:00.787046",
      "modifiedDate": "2024-07-10T16:25:00.787046",
      "id": 12,
      "name": "[MOCHI Handmade] Set Tự Làm/Trang Trí Sẵn Khung Ảnh 3D Size 15x15, 20x20 Quà tặng sinh nhật, quà tặng ngày kỉ niệm",
      "thumbnail": "https://down-vn.img.susercontent.com/file/vn-11134207-7r98o-ln6w72qao4z7b9",
      "price": 279000.0,
      "origin": 299000.0,
      "status": "CON_HANG",
      "unitInStock": 100
    },
    {
      "createdDate": "2024-07-10T16:25:00.828528",
      "modifiedDate": "2024-07-10T16:25:00.828528",
      "id": 13,
      "name": "[QUÀ TẶNG TÌNH YÊU] Sổ Tình Yêu Be With You, Nhật ký tình yêu, quà tặng cặp đôi ý nghĩa",
      "thumbnail": "https://down-vn.img.susercontent.com/file/vn-11134207-7r98o-lvanjjui25pgfe",
      "price": 268000.0,
      "origin": 288000.0,
      "status": "CON_HANG",
      "unitInStock": 100
    },
    {
      "createdDate": "2024-07-10T16:25:00.854247",
      "modifiedDate": "2024-07-10T16:25:00.854247",
      "id": 14,
      "name": "Album ảnh 6x9, 9x12, 10x15 kiểu bìa da Vintage dán ảnh trực tiếp",
      "thumbnail": "https://down-vn.img.susercontent.com/file/vn-11134207-7qukw-lgdmqr5pw5m2f3",
      "price": 15000.0,
      "origin": 170000.0,
      "status": "CON_HANG",
      "unitInStock": 100
    },
    {
      "createdDate": "2024-07-10T16:25:00.880119",
      "modifiedDate": "2024-07-10T16:25:00.880119",
      "id": 15,
      "name": "Shanhai Accordion Album Ảnh Quà Tặng, Gấp Photocard Sách Ảnh Bất Ngờ, Giấy Kraft Sáng Tạo Thủ Công 10 Trang DIY Quà Tặng",
      "thumbnail": "https://down-vn.img.susercontent.com/file/sg-11134201-7rd61-lu665ws3p6hf47",
      "price": 67000.0,
      "origin": 87000.0,
      "status": "CON_HANG",
      "unitInStock": 100
    },
    {
      "createdDate": "2024-07-10T16:25:00.907535",
      "modifiedDate": "2024-07-10T16:25:00.907535",
      "id": 16,
      "name": "Quà tặng Album ảnh, Sổ Scrapbook Vintage Handmade - Tặng kèm hộp carton bảo vệ Scrapbook",
      "thumbnail": "https://down-vn.img.susercontent.com/file/vn-11134207-7r98o-lti0qpuuqhhm92",
      "price": 120000.0,
      "origin": 140000.0,
      "status": "CON_HANG",
      "unitInStock": 100
    },
    {
      "createdDate": "2024-07-10T16:25:00.933974",
      "modifiedDate": "2024-07-10T16:25:00.933974",
      "id": 17,
      "name": "Healmeyou Album Ảnh Sổ Lưu Niệm DIY, Tự Dính 30 Tờ / 60 Trang Album Ảnh Kỷ Niệm, Tranh Kỷ Niệm Bằng Gỗ Handmade Album Tăng",
      "thumbnail": "https://down-vn.img.susercontent.com/file/sg-11134201-7rd53-lw4m5nfkbfmv29",
      "price": 200000.0,
      "origin": 220000.0,
      "status": "CON_HANG",
      "unitInStock": 100
    },
    {
      "createdDate": "2024-07-10T16:25:00.963241",
      "modifiedDate": "2024-07-10T16:25:00.963241",
      "id": 18,
      "name": "Hộp Album ảnh kỷ niệm lãng mạn thích hợp làm quà tặng/ kỉ niệm/ ngày kỷ niệm",
      "thumbnail": "https://down-vn.img.susercontent.com/file/5848b8d5e8f98a4a845aa56ba1dc77f0",
      "price": 168000.0,
      "origin": 188000.0,
      "status": "CON_HANG",
      "unitInStock": 100
    },
    {
      "createdDate": "2024-07-10T16:25:00.991231",
      "modifiedDate": "2024-07-10T16:25:00.991231",
      "id": 19,
      "name": "Scrapbook phong thư mini 001, sổ dán ảnh hiệu ứng, quà tặng sinh nhật đáng yêu đựng được tới 43 cái ảnh",
      "thumbnail": "https://down-vn.img.susercontent.com/file/vn-11134207-7r98o-llaioy0ml58630",
      "price": 275000.0,
      "origin": 295000.0,
      "status": "CON_HANG",
      "unitInStock": 100
    },
    {
      "createdDate": "2024-07-10T16:25:01.024732",
      "modifiedDate": "2024-07-10T16:25:01.024732",
      "id": 20,
      "name": "[Album Handmade tình yêu] Remember scrapbook",
      "thumbnail": "https://down-vn.img.susercontent.com/file/29ef3ddaaad6662936482a1af77e9a5d",
      "price": 640000.0,
      "origin": 660000.0,
      "status": "CON_HANG",
      "unitInStock": 100
    }
  ],
  "page": {
    "size": 10,
    "number": 1,
    "totalElements": 60,
    "totalPages": 6
  }
}